<svg width="14" height="18" viewBox="0 0 14 18" fill="none" xmlns="http://www.w3.org/2000/svg">
<path fill-rule="evenodd" clip-rule="evenodd" d="M7.90974 0.666016C8.32815 0.666016 8.66732 1.0052 8.66732 1.42359V3.69632C8.66732 4.95151 9.68482 5.96905 10.94 5.96905H13.2128C13.6312 5.96905 13.9703 6.30823 13.9703 6.72662V15.06C13.9703 16.3152 12.9528 17.3327 11.6976 17.3327H2.60671C1.35152 17.3327 0.333984 16.3152 0.333984 15.06V2.93874C0.333984 1.68355 1.35152 0.666016 2.60671 0.666016H7.90974ZM4.87707 8.99698C4.45867 8.99698 4.1195 9.33615 4.1195 9.75456C4.1195 10.173 4.45867 10.5121 4.87707 10.5121H9.42253C9.84093 10.5121 10.1801 10.173 10.1801 9.75456C10.1801 9.33615 9.84093 8.99698 9.42253 8.99698H4.87707ZM4.87707 12.0297C4.45867 12.0297 4.1195 12.3688 4.1195 12.7872C4.1195 13.2056 4.45867 13.5448 4.87707 13.5448H7.1498C7.56821 13.5448 7.90737 13.2056 7.90737 12.7872C7.90737 12.3688 7.56821 12.0297 7.1498 12.0297H4.87707ZM10.1848 1.42052C10.1848 1.00213 10.5395 0.635625 10.9253 0.797429C11.0923 0.867475 11.2476 0.968126 11.3862 1.10672L13.5289 3.24947C13.6676 3.38807 13.7682 3.5433 13.8382 3.71035C14.0001 4.09619 13.6335 4.45082 13.2151 4.45082H10.9424C10.524 4.45082 10.1848 4.11165 10.1848 3.69325V1.42052Z" fill="#2753B8"/>
</svg>
