<svg width="18" height="18" viewBox="0 0 18 18" fill="none" xmlns="http://www.w3.org/2000/svg">
<path fill-rule="evenodd" clip-rule="evenodd" d="M9.00016 0.583252C6.75215 0.583252 4.63821 1.45879 3.04866 3.04842C1.45911 4.63803 0.583496 6.75191 0.583496 8.99992C0.583496 11.2479 1.45907 13.3618 3.04866 14.9514C4.63825 16.541 6.75215 17.4166 9.00016 17.4166C11.2482 17.4166 13.3621 16.541 14.9517 14.9514C16.5412 13.3618 17.4168 11.2479 17.4168 8.99992C17.4168 6.75191 16.5413 4.638 14.9517 3.04841C13.3621 1.45883 11.2482 0.583252 9.00016 0.583252ZM1.79183 8.99992C1.79183 5.0253 5.02555 1.79159 9.00016 1.79159C12.9748 1.79159 16.2085 5.0253 16.2085 8.99992C16.2085 12.9745 12.9748 16.2083 9.00016 16.2083C5.02555 16.2083 1.79183 12.9745 1.79183 8.99992ZM9.00016 3.70825C8.62804 3.70825 8.30196 3.96634 8.30196 4.31242V4.82426C7.07618 5.08811 6.1499 6.03469 6.1499 7.177C6.1499 8.52781 7.44195 9.60409 9.00016 9.60409C9.81524 9.60409 10.454 10.1633 10.454 10.8228C10.454 11.4823 9.81524 12.0416 9.00016 12.0416C8.18508 12.0416 7.54632 11.4823 7.54632 10.8228C7.54632 10.4768 7.22023 10.2187 6.84811 10.2187C6.47598 10.2187 6.1499 10.4768 6.1499 10.8228C6.1499 11.9651 7.07618 12.9117 8.30196 13.1756V13.6874C8.30196 14.0335 8.62804 14.2916 9.00016 14.2916C9.37229 14.2916 9.69837 14.0335 9.69837 13.6874V13.1756C10.9241 12.9117 11.8504 11.9651 11.8504 10.8228C11.8504 9.47203 10.5584 8.39575 9.00016 8.39575C8.18508 8.39575 7.54632 7.83652 7.54632 7.177C7.54632 6.51749 8.18508 5.95825 9.00016 5.95825C9.81524 5.95825 10.454 6.51749 10.454 7.177C10.454 7.52308 10.7801 7.78117 11.1522 7.78117C11.5243 7.78117 11.8504 7.52308 11.8504 7.177C11.8504 6.03469 10.9241 5.08811 9.69837 4.82426V4.31242C9.69837 3.96634 9.37229 3.70825 9.00016 3.70825Z" fill="white"/>
</svg>
