<svg width="21" height="20" viewBox="0 0 21 20" fill="none" xmlns="http://www.w3.org/2000/svg">
<g clip-path="url(#clip0_3707_30253)">
<path d="M4.93242 12.0855L4.23625 14.6845L1.69176 14.7383C0.931328 13.3279 0.5 11.7141 0.5 9.9993C0.5 8.34105 0.903281 6.7773 1.61812 5.40039H1.61867L3.88398 5.8157L4.87633 8.06742C4.66863 8.67293 4.55543 9.32293 4.55543 9.9993C4.55551 10.7334 4.68848 11.4367 4.93242 12.0855Z" fill="#FBBB00"/>
<path d="M20.3261 8.13281C20.441 8.73773 20.5009 9.36246 20.5009 10.0009C20.5009 10.7169 20.4256 11.4152 20.2822 12.0889C19.7954 14.3812 18.5234 16.3828 16.7613 17.7993L16.7608 17.7987L13.9075 17.6532L13.5037 15.1323C14.6729 14.4466 15.5866 13.3735 16.068 12.0889H10.7207V8.13281H16.146H20.3261Z" fill="#518EF8"/>
<path d="M16.7595 17.7975L16.7601 17.798C15.0464 19.1755 12.8694 19.9996 10.4996 19.9996C6.69141 19.9996 3.38043 17.8711 1.69141 14.7387L4.93207 12.0859C5.77656 14.3398 7.95074 15.9442 10.4996 15.9442C11.5952 15.9442 12.6216 15.648 13.5024 15.131L16.7595 17.7975Z" fill="#28B446"/>
<path d="M16.882 2.30219L13.6425 4.95437C12.7309 4.38461 11.6534 4.05547 10.4991 4.05547C7.89246 4.05547 5.67762 5.73348 4.87543 8.06812L1.61773 5.40109H1.61719C3.28148 2.1923 6.63422 0 10.4991 0C12.9254 0 15.1502 0.864297 16.882 2.30219Z" fill="#F14336"/>
</g>
<defs>
<clipPath id="clip0_3707_30253">
<rect width="20" height="20" fill="white" transform="translate(0.5)"/>
</clipPath>
</defs>
</svg>
