<svg width="18" height="18" viewBox="0 0 18 18" fill="none" xmlns="http://www.w3.org/2000/svg">
<path fill-rule="evenodd" clip-rule="evenodd" d="M1.49984 0.666504C1.0396 0.666504 0.666504 1.0396 0.666504 1.49984C0.666504 1.96007 1.0396 2.33317 1.49984 2.33317H2.32532V16.659C2.32532 16.9688 2.65129 17.1702 2.92833 17.0317L5.28598 15.8528C5.52058 15.7355 5.79673 15.7355 6.03133 15.8528L7.87399 16.7742C8.57774 17.1261 9.40624 17.1261 10.11 16.7742L11.9527 15.8528C12.1872 15.7355 12.4634 15.7355 12.698 15.8528L15.0557 17.0317C15.3327 17.1702 15.6587 16.9688 15.6587 16.659V2.33317H16.4998C16.9601 2.33317 17.3332 1.96007 17.3332 1.49984C17.3332 1.0396 16.9601 0.666504 16.4998 0.666504H15.6587H2.32532H1.49984ZM4.40159 2.33317H13.5823C13.8091 2.33691 13.9919 2.522 13.9919 2.74978V14.023C13.9919 14.3048 13.6953 14.4881 13.4433 14.3621C12.7395 14.0102 11.911 14.0102 11.2073 14.3621L9.3646 15.2834C9.13001 15.4007 8.85385 15.4007 8.61926 15.2834L6.77663 14.3621C6.07281 14.0102 5.24438 14.0102 4.54056 14.3621C4.2885 14.4881 3.99193 14.3048 3.99193 14.023V2.74978C3.99193 2.522 4.17471 2.33691 4.40159 2.33317ZM5.66633 4.83306C5.66633 4.37282 6.03943 3.99972 6.49966 3.99972H8.16633C8.62658 3.99972 8.99966 4.37282 8.99966 4.83306C8.99966 5.29329 8.62658 5.66639 8.16633 5.66639H6.49966C6.03943 5.66639 5.66633 5.29329 5.66633 4.83306ZM11.4995 3.99972C11.0392 3.99972 10.6662 4.37282 10.6662 4.83306C10.6662 5.29329 11.0392 5.66639 11.4995 5.66639C11.9597 5.66639 12.3328 5.29329 12.3328 4.83306C12.3328 4.37282 11.9597 3.99972 11.4995 3.99972ZM6.49966 7.33294C6.03943 7.33294 5.66633 7.70602 5.66633 8.16627C5.66633 8.62652 6.03943 8.99961 6.49966 8.99961H8.16633C8.62658 8.99961 8.99966 8.62652 8.99966 8.16627C8.99966 7.70602 8.62658 7.33294 8.16633 7.33294H6.49966ZM11.4995 7.33294C11.0392 7.33294 10.6662 7.70602 10.6662 8.16627C10.6662 8.62652 11.0392 8.99961 11.4995 8.99961C11.9597 8.99961 12.3328 8.62652 12.3328 8.16627C12.3328 7.70602 11.9597 7.33294 11.4995 7.33294ZM6.49966 10.6662C6.03943 10.6662 5.66633 11.0392 5.66633 11.4995C5.66633 11.9597 6.03943 12.3328 6.49966 12.3328H8.16633C8.62658 12.3328 8.99966 11.9597 8.99966 11.4995C8.99966 11.0392 8.62658 10.6662 8.16633 10.6662H6.49966ZM11.4995 10.6662C11.0392 10.6662 10.6662 11.0392 10.6662 11.4995C10.6662 11.9597 11.0392 12.3328 11.4995 12.3328C11.9597 12.3328 12.3328 11.9597 12.3328 11.4995C12.3328 11.0392 11.9597 10.6662 11.4995 10.6662Z" fill="white"/>
</svg>
