<svg width="24" height="24" viewBox="0 0 24 24" fill="none" xmlns="http://www.w3.org/2000/svg">
<path d="M11.1817 22C12.6635 22 13.903 20.9241 14.1877 19.5H8.17578C8.46057 20.9241 9.7001 22 11.1817 22Z" fill="#272B36"/>
<path d="M16.9191 11.9985C16.9158 11.9985 16.9125 11.9993 16.9092 11.9993C13.752 11.9993 11.1821 9.38257 11.1821 6.16602C11.1821 5.28177 11.3818 4.44589 11.7295 3.69424C11.5495 3.67685 11.367 3.66602 11.1821 3.66602C8.01916 3.66602 5.45501 6.27756 5.45501 9.4993V11.8226C5.45501 13.4718 4.74565 15.0285 3.50118 16.1001C3.08635 16.461 2.90223 17.0359 3.05115 17.5968C3.22463 18.2493 3.85788 18.666 4.52229 18.666H17.8379C18.535 18.666 19.192 18.206 19.3335 17.5102C19.4431 16.9718 19.255 16.4343 18.8451 16.0835C17.6554 15.0677 16.9674 13.5751 16.9191 11.9985Z" fill="#272B36"/>
<path d="M21 6.16672C21 8.4679 19.1685 10.3333 16.9091 10.3333C14.6498 10.3333 12.8184 8.4679 12.8184 6.16672C12.8184 3.86554 14.6498 2 16.9091 2C19.1685 2 21 3.86554 21 6.16672Z" fill="#D63126"/>
</svg>
