<svg width="14" height="18" viewBox="0 0 14 18" fill="none" xmlns="http://www.w3.org/2000/svg">
<path fill-rule="evenodd" clip-rule="evenodd" d="M3.77843 5.11202C3.77843 3.32284 5.22268 1.87242 7.00424 1.87242C8.78581 1.87242 10.23 3.32284 10.23 5.11202C10.23 6.9012 8.78581 8.35162 7.00424 8.35162C5.22268 8.35162 3.77843 6.9012 3.77843 5.11202ZM7.00424 0.666016C4.55924 0.666016 2.57717 2.65656 2.57717 5.11202C2.57717 7.56748 4.55924 9.55803 7.00424 9.55803C9.44925 9.55803 11.4313 7.56748 11.4313 5.11202C11.4313 2.65656 9.44925 0.666016 7.00424 0.666016ZM5.29748 12.552C6.43068 12.452 7.57042 12.452 8.70362 12.552C8.70714 12.5523 8.71066 12.5526 8.71419 12.5528C9.31722 12.5953 9.91657 12.6799 10.5079 12.8061C10.5093 12.8064 10.5107 12.8067 10.5121 12.807C10.9164 12.8903 11.3318 13.0097 11.6767 13.1833C12.0253 13.3587 12.2447 13.5603 12.3481 13.7782C12.5054 14.1104 12.5054 14.496 12.3481 14.8282C12.2447 15.046 12.0255 15.2474 11.6777 15.4217C11.3336 15.594 10.9191 15.7116 10.5169 15.791C10.512 15.792 10.5072 15.793 10.5023 15.7941C9.91397 15.9255 9.3166 16.0122 8.71528 16.0535C8.712 16.0537 8.70872 16.0539 8.70544 16.0542C7.78226 16.1328 6.85477 16.1471 5.92962 16.0971C5.91887 16.0965 5.9081 16.0962 5.89732 16.0962C5.66912 16.0962 5.5152 16.0944 5.36271 16.0638C5.33721 16.0586 5.31141 16.0552 5.28546 16.0534C4.68696 16.0128 4.09244 15.9261 3.50711 15.7943C3.5034 15.7935 3.49969 15.7927 3.49597 15.7919C3.49417 15.7915 3.49237 15.7912 3.49058 15.7908C3.08528 15.7115 2.67095 15.5939 2.32708 15.4217C1.98124 15.2484 1.75968 15.0468 1.65205 14.8261C1.57492 14.6617 1.53503 14.4821 1.53527 14.3003L1.53526 14.2972C1.5346 14.12 1.57371 13.945 1.64967 13.7852C1.75322 13.5801 1.97638 13.3762 2.32912 13.1947C2.67679 13.0158 3.09337 12.8885 3.48903 12.807C3.49058 12.8067 3.49214 12.8064 3.49369 12.806C4.0846 12.6794 4.68366 12.5948 5.28643 12.5529C5.29011 12.5526 5.2938 12.5523 5.29748 12.552ZM5.19786 11.3497C6.39744 11.2442 7.6039 11.2442 8.80348 11.3498C9.45975 11.3962 10.112 11.4884 10.7556 11.6257C11.2084 11.7191 11.7377 11.8646 12.2149 12.1047C12.689 12.3433 13.1696 12.7048 13.4328 13.2598L13.433 13.2601C13.7454 13.9201 13.7454 14.6863 13.433 15.3462L13.4328 15.3465C13.1696 15.9016 12.6888 16.2632 12.2139 16.5012C11.7377 16.7398 11.2098 16.8833 10.756 16.9733C10.1126 17.1167 9.45948 17.2114 8.80202 17.2567C7.83065 17.3392 6.85479 17.3545 5.88133 17.3026H5.8784C5.67984 17.3027 5.43156 17.3027 5.16781 17.2545C4.52326 17.2089 3.88301 17.1149 3.2524 16.9733C2.79464 16.8832 2.26687 16.7397 1.79081 16.5012C1.3151 16.2628 0.836965 15.9021 0.570298 15.3507C0.569468 15.349 0.568646 15.3473 0.567833 15.3456C0.413613 15.0189 0.333748 14.6618 0.333996 14.3002C0.33287 13.9392 0.413388 13.5825 0.569511 13.2572C0.570772 13.2546 0.572052 13.252 0.57335 13.2494C0.837143 12.7196 1.31347 12.3617 1.78144 12.121C2.2558 11.8769 2.78385 11.7209 3.24529 11.6257C3.8889 11.4879 4.54137 11.3957 5.19786 11.3497Z" fill="white"/>
</svg>
